{
  "tagfile": {
    "compound": [
      {
        "@kind": "class",
        "name": {
          "$": "KDecoration2::DecoratedClient"
        },
        "filename": {
          "$": "classKDecoration2_1_1DecoratedClient.html"
        },
        "base": {
          "$": "QObject"
        },
        "member": [
          {
            "@kind": "property",
            "type": {
              "$": "bool"
            },
            "name": {
              "$": "active"
            },
            "anchorfile": {
              "$": "classKDecoration2_1_1DecoratedClient.html"
            },
            "anchor": {
              "$": "a690f4beab55e9265a3de9c9e26e635e2"
            },
            "arglist": {}
          },
          {
            "@kind": "property",
            "type": {
              "$": "Qt::Edges"
            },
            "name": {
              "$": "adjacentScreenEdges"
            },
            "anchorfile": {
              "$": "classKDecoration2_1_1DecoratedClient.html"
            },
            "anchor": {
              "$": "a9198b4185a0fae1ed7665583bc5a3001"
            },
            "arglist": {}
          },
          {
            "@kind": "property",
            "type": {
              "$": "bool"
            },
            "name": {
              "$": "applicationMenuActive"
            },
            "anchorfile": {
              "$": "classKDecoration2_1_1DecoratedClient.html"
            },
            "anchor": {
              "$": "a371aa78fda3130195b2a463ce933db9d"
            },
            "arglist": {}
          },
          {
            "@kind": "property",
            "type": {
              "$": "QString"
            },
            "name": {
              "$": "caption"
            },
            "anchorfile": {
              "$": "classKDecoration2_1_1DecoratedClient.html"
            },
            "anchor": {
              "$": "a9d08693ad632edc1ae57ccf740c15bad"
            },
            "arglist": {}
          },
          {
            "@kind": "property",
            "type": {
              "$": "bool"
            },
            "name": {
              "$": "closeable"
            },
            "anchorfile": {
              "$": "classKDecoration2_1_1DecoratedClient.html"
            },
            "anchor": {
              "$": "a118102ace51925e3376d1ddaa48ce02c"
            },
            "arglist": {}
          },
          {
            "@kind": "property",
            "type": {
              "$": "KDecoration2::Decoration"
            },
            "name": {
              "$": "decoration"
            },
            "anchorfile": {
              "$": "classKDecoration2_1_1DecoratedClient.html"
            },
            "anchor": {
              "$": "a3d0c9f978feb535066c50f7fb3843733"
            },
            "arglist": {}
          },
          {
            "@kind": "property",
            "type": {
              "$": "bool"
            },
            "name": {
              "$": "hasApplicationMenu"
            },
            "anchorfile": {
              "$": "classKDecoration2_1_1DecoratedClient.html"
            },
            "anchor": {
              "$": "a397ee88452fc885bd5087c05a8307374"
            },
            "arglist": {}
          },
          {
            "@kind": "property",
            "type": {
              "$": "int"
            },
            "name": {
              "$": "height"
            },
            "anchorfile": {
              "$": "classKDecoration2_1_1DecoratedClient.html"
            },
            "anchor": {
              "$": "aef42635a7128d87fc0a467ccc18b47e1"
            },
            "arglist": {}
          },
          {
            "@kind": "property",
            "type": {
              "$": "QIcon"
            },
            "name": {
              "$": "icon"
            },
            "anchorfile": {
              "$": "classKDecoration2_1_1DecoratedClient.html"
            },
            "anchor": {
              "$": "a599b6b2786138251de3f240683cd5210"
            },
            "arglist": {}
          },
          {
            "@kind": "property",
            "type": {
              "$": "bool"
            },
            "name": {
              "$": "keepAbove"
            },
            "anchorfile": {
              "$": "classKDecoration2_1_1DecoratedClient.html"
            },
            "anchor": {
              "$": "af9ce3ecc5b199c93e51fd14d59fbc526"
            },
            "arglist": {}
          },
          {
            "@kind": "property",
            "type": {
              "$": "bool"
            },
            "name": {
              "$": "keepBelow"
            },
            "anchorfile": {
              "$": "classKDecoration2_1_1DecoratedClient.html"
            },
            "anchor": {
              "$": "a097ef7033dcab20ea8d357dbc4422c55"
            },
            "arglist": {}
          },
          {
            "@kind": "property",
            "type": {
              "$": "bool"
            },
            "name": {
              "$": "maximizeable"
            },
            "anchorfile": {
              "$": "classKDecoration2_1_1DecoratedClient.html"
            },
            "anchor": {
              "$": "aa0d9837a40bd4264a0e04d523c404d00"
            },
            "arglist": {}
          },
          {
            "@kind": "property",
            "type": {
              "$": "bool"
            },
            "name": {
              "$": "maximized"
            },
            "anchorfile": {
              "$": "classKDecoration2_1_1DecoratedClient.html"
            },
            "anchor": {
              "$": "a9fc3afef63632b61ee96dfc6f8c529ee"
            },
            "arglist": {}
          },
          {
            "@kind": "property",
            "type": {
              "$": "bool"
            },
            "name": {
              "$": "maximizedHorizontally"
            },
            "anchorfile": {
              "$": "classKDecoration2_1_1DecoratedClient.html"
            },
            "anchor": {
              "$": "afaf0dce8ccd32e2d858a991da25b22d5"
            },
            "arglist": {}
          },
          {
            "@kind": "property",
            "type": {
              "$": "bool"
            },
            "name": {
              "$": "maximizedVertically"
            },
            "anchorfile": {
              "$": "classKDecoration2_1_1DecoratedClient.html"
            },
            "anchor": {
              "$": "a856ef743711f1e1d8808c179b9345362"
            },
            "arglist": {}
          },
          {
            "@kind": "property",
            "type": {
              "$": "bool"
            },
            "name": {
              "$": "minimizeable"
            },
            "anchorfile": {
              "$": "classKDecoration2_1_1DecoratedClient.html"
            },
            "anchor": {
              "$": "afae9e295123e0c9ae422d48b6b5de59f"
            },
            "arglist": {}
          },
          {
            "@kind": "property",
            "type": {
              "$": "bool"
            },
            "name": {
              "$": "modal"
            },
            "anchorfile": {
              "$": "classKDecoration2_1_1DecoratedClient.html"
            },
            "anchor": {
              "$": "ae23b384b913408c534492e63a2888f38"
            },
            "arglist": {}
          },
          {
            "@kind": "property",
            "type": {
              "$": "bool"
            },
            "name": {
              "$": "moveable"
            },
            "anchorfile": {
              "$": "classKDecoration2_1_1DecoratedClient.html"
            },
            "anchor": {
              "$": "ae95e1c93487413727a19d61474a6df7f"
            },
            "arglist": {}
          },
          {
            "@kind": "property",
            "type": {
              "$": "bool"
            },
            "name": {
              "$": "onAllDesktops"
            },
            "anchorfile": {
              "$": "classKDecoration2_1_1DecoratedClient.html"
            },
            "anchor": {
              "$": "ab9b825763a58ff7c464217f2ba90be20"
            },
            "arglist": {}
          },
          {
            "@kind": "property",
            "type": {
              "$": "QPalette"
            },
            "name": {
              "$": "palette"
            },
            "anchorfile": {
              "$": "classKDecoration2_1_1DecoratedClient.html"
            },
            "anchor": {
              "$": "a87768f5cd9c65d32e3fbc22ddefba1bc"
            },
            "arglist": {}
          },
          {
            "@kind": "property",
            "type": {
              "$": "bool"
            },
            "name": {
              "$": "providesContextHelp"
            },
            "anchorfile": {
              "$": "classKDecoration2_1_1DecoratedClient.html"
            },
            "anchor": {
              "$": "acc7ad59cf388a23a40877480d4a8ed1c"
            },
            "arglist": {}
          },
          {
            "@kind": "property",
            "type": {
              "$": "bool"
            },
            "name": {
              "$": "resizeable"
            },
            "anchorfile": {
              "$": "classKDecoration2_1_1DecoratedClient.html"
            },
            "anchor": {
              "$": "a503bc753a648b9dd1e226b9f320cf617"
            },
            "arglist": {}
          },
          {
            "@kind": "property",
            "type": {
              "$": "bool"
            },
            "name": {
              "$": "shadeable"
            },
            "anchorfile": {
              "$": "classKDecoration2_1_1DecoratedClient.html"
            },
            "anchor": {
              "$": "aa564bdc88621d4617b8d822e88b88fbe"
            },
            "arglist": {}
          },
          {
            "@kind": "property",
            "type": {
              "$": "bool"
            },
            "name": {
              "$": "shaded"
            },
            "anchorfile": {
              "$": "classKDecoration2_1_1DecoratedClient.html"
            },
            "anchor": {
              "$": "a9e4e67a820a5d5c1849d40badd7edcc1"
            },
            "arglist": {}
          },
          {
            "@kind": "property",
            "type": {
              "$": "QSize"
            },
            "name": {
              "$": "size"
            },
            "anchorfile": {
              "$": "classKDecoration2_1_1DecoratedClient.html"
            },
            "anchor": {
              "$": "ae7ce4aac359b61eb6ac43526b8a50aa4"
            },
            "arglist": {}
          },
          {
            "@kind": "property",
            "type": {
              "$": "int"
            },
            "name": {
              "$": "width"
            },
            "anchorfile": {
              "$": "classKDecoration2_1_1DecoratedClient.html"
            },
            "anchor": {
              "$": "a6bde4f7dd85d58621b72cf8642a9d3d6"
            },
            "arglist": {}
          },
          {
            "@kind": "function",
            "type": {
              "$": "QColor"
            },
            "name": {
              "$": "color"
            },
            "anchorfile": {
              "$": "classKDecoration2_1_1DecoratedClient.html"
            },
            "anchor": {
              "$": "add7822d124f73dfae85b7212a474e449"
            },
            "arglist": {
              "$": "(ColorGroup group, ColorRole role) const"
            }
          },
          {
            "@kind": "function",
            "type": {
              "$": "QColor"
            },
            "name": {
              "$": "color"
            },
            "anchorfile": {
              "$": "classKDecoration2_1_1DecoratedClient.html"
            },
            "anchor": {
              "$": "a09c36a4c6f9db7b6b798addf1ed72db1"
            },
            "arglist": {
              "$": "(QPalette::ColorGroup group, QPalette::ColorRole role) const"
            }
          },
          {
            "@kind": "function",
            "type": {
              "$": "bool"
            },
            "name": {
              "$": "hasApplicationMenu"
            },
            "anchorfile": {
              "$": "classKDecoration2_1_1DecoratedClient.html"
            },
            "anchor": {
              "$": "a5e3bdb2104abf035c59889d875ce7e2e"
            },
            "arglist": {
              "$": "() const"
            }
          },
          {
            "@kind": "function",
            "type": {
              "$": "bool"
            },
            "name": {
              "$": "isApplicationMenuActive"
            },
            "anchorfile": {
              "$": "classKDecoration2_1_1DecoratedClient.html"
            },
            "anchor": {
              "$": "adbe27eede72c5f84a37ca9ae1bcf0d4b"
            },
            "arglist": {
              "$": "() const"
            }
          },
          {
            "@kind": "function",
            "type": {
              "$": "void"
            },
            "name": {
              "$": "showApplicationMenu"
            },
            "anchorfile": {
              "$": "classKDecoration2_1_1DecoratedClient.html"
            },
            "anchor": {
              "$": "ac5face451b298104f88386c079757cfc"
            },
            "arglist": {
              "$": "(int actionId)"
            }
          }
        ]
      },
      {
        "@kind": "class",
        "name": {
          "$": "KDecoration2::Decoration"
        },
        "filename": {
          "$": "classKDecoration2_1_1Decoration.html"
        },
        "base": {
          "$": "QObject"
        },
        "member": [
          {
            "@kind": "property",
            "type": {
              "$": "bool"
            },
            "name": {
              "$": "opaque"
            },
            "anchorfile": {
              "$": "classKDecoration2_1_1Decoration.html"
            },
            "anchor": {
              "$": "a495beb711e1daf51576279b0719974ff"
            },
            "arglist": {}
          },
          {
            "@kind": "property",
            "type": {
              "$": "Qt::WindowFrameSection"
            },
            "name": {
              "$": "sectionUnderMouse"
            },
            "anchorfile": {
              "$": "classKDecoration2_1_1Decoration.html"
            },
            "anchor": {
              "$": "ae1feded46f52b83badb45be1f6fb1f96"
            },
            "arglist": {}
          },
          {
            "@kind": "property",
            "type": {
              "$": "QRect"
            },
            "name": {
              "$": "titleBar"
            },
            "anchorfile": {
              "$": "classKDecoration2_1_1Decoration.html"
            },
            "anchor": {
              "$": "ab91c0bbfe51ed60c3b9b94f950ce5180"
            },
            "arglist": {}
          },
          {
            "@kind": "slot",
            "@virtualness": "virtual",
            "type": {
              "$": "virtual void"
            },
            "name": {
              "$": "init"
            },
            "anchorfile": {
              "$": "classKDecoration2_1_1Decoration.html"
            },
            "anchor": {
              "$": "ae68b5afb58e9b8e25845d0921d349e5b"
            },
            "arglist": {
              "$": "()"
            }
          },
          {
            "@kind": "slot",
            "type": {
              "$": "void"
            },
            "name": {
              "$": "requestShowWindowMenu"
            },
            "anchorfile": {
              "$": "classKDecoration2_1_1Decoration.html"
            },
            "anchor": {
              "$": "a2a41777d31ad3e550e15425f32e1d21c"
            },
            "arglist": {
              "$": "(const QRect &rect)"
            }
          },
          {
            "@kind": "function",
            "type": {
              "$": "QRegion"
            },
            "name": {
              "$": "blurRegion"
            },
            "anchorfile": {
              "$": "classKDecoration2_1_1Decoration.html"
            },
            "anchor": {
              "$": "aadf3a79fd82dce17cc7100056f4e99fa"
            },
            "arglist": {
              "$": "() const"
            }
          },
          {
            "@kind": "function",
            "type": {
              "$": "DecoratedClient *"
            },
            "name": {
              "$": "client"
            },
            "anchorfile": {
              "$": "classKDecoration2_1_1Decoration.html"
            },
            "anchor": {
              "$": "a633bd6661434981164f2e8af870b6aff"
            },
            "arglist": {
              "$": "() const"
            }
          },
          {
            "@kind": "function",
            "@virtualness": "pure",
            "type": {
              "$": "virtual void"
            },
            "name": {
              "$": "paint"
            },
            "anchorfile": {
              "$": "classKDecoration2_1_1Decoration.html"
            },
            "anchor": {
              "$": "a39ea53ed89dc997d286f6ae243b8c41a"
            },
            "arglist": {
              "$": "(QPainter *painter, const QRect &repaintArea)=0"
            }
          },
          {
            "@kind": "function",
            "type": {
              "$": "QRect"
            },
            "name": {
              "$": "rect"
            },
            "anchorfile": {
              "$": "classKDecoration2_1_1Decoration.html"
            },
            "anchor": {
              "$": "ac50b6e054cbe1dc4c612e3c4ff5e9da8"
            },
            "arglist": {
              "$": "() const"
            }
          },
          {
            "@kind": "function",
            "type": {
              "$": "void"
            },
            "name": {
              "$": "setSettings"
            },
            "anchorfile": {
              "$": "classKDecoration2_1_1Decoration.html"
            },
            "anchor": {
              "$": "a1263ea11691d74e63ae89e08e3f20285"
            },
            "arglist": {
              "$": "(const std::shared_ptr< DecorationSettings > &settings)"
            }
          },
          {
            "@kind": "function",
            "type": {
              "$": "std::shared_ptr< DecorationSettings >"
            },
            "name": {
              "$": "settings"
            },
            "anchorfile": {
              "$": "classKDecoration2_1_1Decoration.html"
            },
            "anchor": {
              "$": "ad361fd7c5ce4da32f06812ac3cc92271"
            },
            "arglist": {
              "$": "() const"
            }
          },
          {
            "@kind": "function",
            "type": {
              "$": "std::shared_ptr< DecorationShadow >"
            },
            "name": {
              "$": "shadow"
            },
            "anchorfile": {
              "$": "classKDecoration2_1_1Decoration.html"
            },
            "anchor": {
              "$": "a0f85706b885b93733179a13261f2d963"
            },
            "arglist": {
              "$": "() const"
            }
          },
          {
            "@kind": "function",
            "@protection": "protected",
            "type": {},
            "name": {
              "$": "Decoration"
            },
            "anchorfile": {
              "$": "classKDecoration2_1_1Decoration.html"
            },
            "anchor": {
              "$": "a426737cf4dc67aba06a249ad7e2d3234"
            },
            "arglist": {
              "$": "(QObject *parent, const QVariantList &args)"
            }
          },
          {
            "@kind": "function",
            "@protection": "protected",
            "type": {
              "$": "void"
            },
            "name": {
              "$": "setTitleBar"
            },
            "anchorfile": {
              "$": "classKDecoration2_1_1Decoration.html"
            },
            "anchor": {
              "$": "aa140f9390045a137fccb2a6d5027aa2d"
            },
            "arglist": {
              "$": "(const QRect &rect)"
            }
          }
        ]
      },
      {
        "@kind": "class",
        "name": {
          "$": "KDecoration2::DecorationButton"
        },
        "filename": {
          "$": "classKDecoration2_1_1DecorationButton.html"
        },
        "base": {
          "$": "QObject"
        },
        "member": [
          {
            "@kind": "property",
            "type": {
              "$": "Qt::MouseButtons"
            },
            "name": {
              "$": "acceptedButtons"
            },
            "anchorfile": {
              "$": "classKDecoration2_1_1DecorationButton.html"
            },
            "anchor": {
              "$": "a188f214a181506f1e9379a219ae6e87a"
            },
            "arglist": {}
          },
          {
            "@kind": "property",
            "type": {
              "$": "bool"
            },
            "name": {
              "$": "checkable"
            },
            "anchorfile": {
              "$": "classKDecoration2_1_1DecorationButton.html"
            },
            "anchor": {
              "$": "a366e02f3a1a59440c4e017551ed88b18"
            },
            "arglist": {}
          },
          {
            "@kind": "property",
            "type": {
              "$": "bool"
            },
            "name": {
              "$": "checked"
            },
            "anchorfile": {
              "$": "classKDecoration2_1_1DecorationButton.html"
            },
            "anchor": {
              "$": "a166915676c610d49f9c96c477ce47cec"
            },
            "arglist": {}
          },
          {
            "@kind": "property",
            "type": {
              "$": "bool"
            },
            "name": {
              "$": "enabled"
            },
            "anchorfile": {
              "$": "classKDecoration2_1_1DecorationButton.html"
            },
            "anchor": {
              "$": "acc468e1daceaec97932f35b72e88d09e"
            },
            "arglist": {}
          },
          {
            "@kind": "property",
            "type": {
              "$": "QRectF"
            },
            "name": {
              "$": "geometry"
            },
            "anchorfile": {
              "$": "classKDecoration2_1_1DecorationButton.html"
            },
            "anchor": {
              "$": "a1ebc4b07118c206df66add3e1aa48e8f"
            },
            "arglist": {}
          },
          {
            "@kind": "property",
            "type": {
              "$": "bool"
            },
            "name": {
              "$": "hovered"
            },
            "anchorfile": {
              "$": "classKDecoration2_1_1DecorationButton.html"
            },
            "anchor": {
              "$": "aac08a0ae3fd266547fd3bf2e759c5671"
            },
            "arglist": {}
          },
          {
            "@kind": "property",
            "type": {
              "$": "bool"
            },
            "name": {
              "$": "pressed"
            },
            "anchorfile": {
              "$": "classKDecoration2_1_1DecorationButton.html"
            },
            "anchor": {
              "$": "a193c7adbfc732c28d6542369f8683472"
            },
            "arglist": {}
          },
          {
            "@kind": "property",
            "type": {
              "$": "bool"
            },
            "name": {
              "$": "visible"
            },
            "anchorfile": {
              "$": "classKDecoration2_1_1DecorationButton.html"
            },
            "anchor": {
              "$": "acffd7681c0b25b2945d714c1e57dfe48"
            },
            "arglist": {}
          },
          {
            "@kind": "slot",
            "type": {
              "$": "void"
            },
            "name": {
              "$": "update"
            },
            "anchorfile": {
              "$": "classKDecoration2_1_1DecorationButton.html"
            },
            "anchor": {
              "$": "a11695ad605dc7d42ceddfabbc56ae552"
            },
            "arglist": {
              "$": "()"
            }
          },
          {
            "@kind": "slot",
            "type": {
              "$": "void"
            },
            "name": {
              "$": "update"
            },
            "anchorfile": {
              "$": "classKDecoration2_1_1DecorationButton.html"
            },
            "anchor": {
              "$": "a0c60f1eba1ea2ca5daf7b17b6b9151c2"
            },
            "arglist": {
              "$": "(const QRectF &rect)"
            }
          },
          {
            "@kind": "function",
            "type": {
              "$": "bool"
            },
            "name": {
              "$": "contains"
            },
            "anchorfile": {
              "$": "classKDecoration2_1_1DecorationButton.html"
            },
            "anchor": {
              "$": "a430541c6bbfb691bcddefaccde53e022"
            },
            "arglist": {
              "$": "(const QPointF &pos) const"
            }
          },
          {
            "@kind": "function",
            "@virtualness": "pure",
            "type": {
              "$": "virtual void"
            },
            "name": {
              "$": "paint"
            },
            "anchorfile": {
              "$": "classKDecoration2_1_1DecorationButton.html"
            },
            "anchor": {
              "$": "ab57e4b79de9bf233a8cd5b7812c19c75"
            },
            "arglist": {
              "$": "(QPainter *painter, const QRect &repaintArea)=0"
            }
          }
        ]
      },
      {
        "@kind": "class",
        "name": {
          "$": "KDecoration2::DecorationButtonGroup"
        },
        "filename": {
          "$": "classKDecoration2_1_1DecorationButtonGroup.html"
        },
        "base": {
          "$": "QObject"
        },
        "member": [
          {
            "@kind": "property",
            "type": {
              "$": "QRectF"
            },
            "name": {
              "$": "geometry"
            },
            "anchorfile": {
              "$": "classKDecoration2_1_1DecorationButtonGroup.html"
            },
            "anchor": {
              "$": "ae04af1cbae14460a3c86b6ab2a22829e"
            },
            "arglist": {}
          },
          {
            "@kind": "property",
            "type": {
              "$": "QPointF"
            },
            "name": {
              "$": "pos"
            },
            "anchorfile": {
              "$": "classKDecoration2_1_1DecorationButtonGroup.html"
            },
            "anchor": {
              "$": "ac56019a8c4f0bb5691b67499047896e6"
            },
            "arglist": {}
          },
          {
            "@kind": "property",
            "type": {
              "$": "qreal"
            },
            "name": {
              "$": "spacing"
            },
            "anchorfile": {
              "$": "classKDecoration2_1_1DecorationButtonGroup.html"
            },
            "anchor": {
              "$": "a5daac9f2cd1a7c5d830803b02da5d0e5"
            },
            "arglist": {}
          },
          {
            "@kind": "function",
            "type": {
              "$": "void"
            },
            "name": {
              "$": "addButton"
            },
            "anchorfile": {
              "$": "classKDecoration2_1_1DecorationButtonGroup.html"
            },
            "anchor": {
              "$": "ad1331f240bc7c4b5ad41cbaf93ab7fec"
            },
            "arglist": {
              "$": "(DecorationButton *button)"
            }
          },
          {
            "@kind": "function",
            "type": {
              "$": "QVector< DecorationButton * >"
            },
            "name": {
              "$": "buttons"
            },
            "anchorfile": {
              "$": "classKDecoration2_1_1DecorationButtonGroup.html"
            },
            "anchor": {
              "$": "aade1fca6b836b6ccc1854de62be0f0fd"
            },
            "arglist": {
              "$": "() const"
            }
          },
          {
            "@kind": "function",
            "type": {
              "$": "bool"
            },
            "name": {
              "$": "hasButton"
            },
            "anchorfile": {
              "$": "classKDecoration2_1_1DecorationButtonGroup.html"
            },
            "anchor": {
              "$": "a8842065a2756f6eab9950a736245a493"
            },
            "arglist": {
              "$": "(DecorationButtonType type) const"
            }
          },
          {
            "@kind": "function",
            "@virtualness": "virtual",
            "type": {
              "$": "virtual void"
            },
            "name": {
              "$": "paint"
            },
            "anchorfile": {
              "$": "classKDecoration2_1_1DecorationButtonGroup.html"
            },
            "anchor": {
              "$": "a0caf151f01a2caac600990a6360c52aa"
            },
            "arglist": {
              "$": "(QPainter *painter, const QRect &repaintArea)"
            }
          },
          {
            "@kind": "function",
            "type": {
              "$": "void"
            },
            "name": {
              "$": "removeButton"
            },
            "anchorfile": {
              "$": "classKDecoration2_1_1DecorationButtonGroup.html"
            },
            "anchor": {
              "$": "adb281751caf09279d2ad3fdd443fd40f"
            },
            "arglist": {
              "$": "(DecorationButton *button)"
            }
          },
          {
            "@kind": "function",
            "type": {
              "$": "void"
            },
            "name": {
              "$": "removeButton"
            },
            "anchorfile": {
              "$": "classKDecoration2_1_1DecorationButtonGroup.html"
            },
            "anchor": {
              "$": "a1599b44d03a5de613168a8d42a59410a"
            },
            "arglist": {
              "$": "(DecorationButtonType type)"
            }
          }
        ]
      },
      {
        "@kind": "class",
        "name": {
          "$": "KDecoration2::DecorationSettings"
        },
        "filename": {
          "$": "classKDecoration2_1_1DecorationSettings.html"
        },
        "base": {
          "$": "QObject"
        },
        "member": [
          {
            "@kind": "property",
            "type": {
              "$": "bool"
            },
            "name": {
              "$": "alphaChannelSupported"
            },
            "anchorfile": {
              "$": "classKDecoration2_1_1DecorationSettings.html"
            },
            "anchor": {
              "$": "af174ad0c366f37cf5b3baf97ac110454"
            },
            "arglist": {}
          },
          {
            "@kind": "property",
            "type": {
              "$": "KDecoration2::BorderSize"
            },
            "name": {
              "$": "borderSize"
            },
            "anchorfile": {
              "$": "classKDecoration2_1_1DecorationSettings.html"
            },
            "anchor": {
              "$": "a7526b8ade5f7bb41864a72ddcacc101c"
            },
            "arglist": {}
          },
          {
            "@kind": "property",
            "type": {
              "$": "bool"
            },
            "name": {
              "$": "closeOnDoubleClickOnMenu"
            },
            "anchorfile": {
              "$": "classKDecoration2_1_1DecorationSettings.html"
            },
            "anchor": {
              "$": "a6dd6f094461a9900bf39b41a9e84319d"
            },
            "arglist": {}
          },
          {
            "@kind": "property",
            "type": {
              "$": "QVector< KDecoration2::DecorationButtonType >"
            },
            "name": {
              "$": "decorationButtonsLeft"
            },
            "anchorfile": {
              "$": "classKDecoration2_1_1DecorationSettings.html"
            },
            "anchor": {
              "$": "a00408eac3f0af27e99db772ae36c6d07"
            },
            "arglist": {}
          },
          {
            "@kind": "property",
            "type": {
              "$": "QVector< KDecoration2::DecorationButtonType >"
            },
            "name": {
              "$": "decorationButtonsRight"
            },
            "anchorfile": {
              "$": "classKDecoration2_1_1DecorationSettings.html"
            },
            "anchor": {
              "$": "a124b8da151b37eb9685c51e25b2dab28"
            },
            "arglist": {}
          },
          {
            "@kind": "property",
            "type": {
              "$": "QFont"
            },
            "name": {
              "$": "font"
            },
            "anchorfile": {
              "$": "classKDecoration2_1_1DecorationSettings.html"
            },
            "anchor": {
              "$": "a1ab20dc63d380e303a9e48ee4eb78290"
            },
            "arglist": {}
          },
          {
            "@kind": "property",
            "type": {
              "$": "int"
            },
            "name": {
              "$": "gridUnit"
            },
            "anchorfile": {
              "$": "classKDecoration2_1_1DecorationSettings.html"
            },
            "anchor": {
              "$": "a5d7a5e36c4c30cd7e7917ba708f772fa"
            },
            "arglist": {}
          },
          {
            "@kind": "property",
            "type": {
              "$": "int"
            },
            "name": {
              "$": "largeSpacing"
            },
            "anchorfile": {
              "$": "classKDecoration2_1_1DecorationSettings.html"
            },
            "anchor": {
              "$": "a5fb079b363025f4ae5e37c80c4475746"
            },
            "arglist": {}
          },
          {
            "@kind": "property",
            "type": {
              "$": "bool"
            },
            "name": {
              "$": "onAllDesktopsAvailable"
            },
            "anchorfile": {
              "$": "classKDecoration2_1_1DecorationSettings.html"
            },
            "anchor": {
              "$": "a864847ee1e85b8eda4ea9190fc4420f1"
            },
            "arglist": {}
          },
          {
            "@kind": "property",
            "type": {
              "$": "int"
            },
            "name": {
              "$": "smallSpacing"
            },
            "anchorfile": {
              "$": "classKDecoration2_1_1DecorationSettings.html"
            },
            "anchor": {
              "$": "a76c082d444b02f1653ae13431369901f"
            },
            "arglist": {}
          },
          {
            "@kind": "signal",
            "type": {
              "$": "void"
            },
            "name": {
              "$": "reconfigured"
            },
            "anchorfile": {
              "$": "classKDecoration2_1_1DecorationSettings.html"
            },
            "anchor": {
              "$": "a220869c192e94cfb83d813638539468f"
            },
            "arglist": {
              "$": "()"
            }
          },
          {
            "@kind": "function",
            "type": {
              "$": "QFontMetricsF"
            },
            "name": {
              "$": "fontMetrics"
            },
            "anchorfile": {
              "$": "classKDecoration2_1_1DecorationSettings.html"
            },
            "anchor": {
              "$": "a7899907630d91db5a1837ed8a1577953"
            },
            "arglist": {
              "$": "() const"
            }
          }
        ]
      },
      {
        "@kind": "class",
        "name": {
          "$": "KDecoration2::DecorationShadow"
        },
        "filename": {
          "$": "classKDecoration2_1_1DecorationShadow.html"
        },
        "base": {
          "$": "QObject"
        }
      },
      {
        "@kind": "class",
        "name": {
          "$": "KDecoration2::DecorationThemeMetaData"
        },
        "filename": {
          "$": "classKDecoration2_1_1DecorationThemeMetaData.html"
        },
        "member": [
          {
            "@kind": "function",
            "type": {
              "$": "KDecoration2::BorderSize"
            },
            "name": {
              "$": "borderSize"
            },
            "anchorfile": {
              "$": "classKDecoration2_1_1DecorationThemeMetaData.html"
            },
            "anchor": {
              "$": "a774404bbfafda0b7ae93c09091b96f2a"
            },
            "arglist": {
              "$": "() const"
            }
          },
          {
            "@kind": "function",
            "type": {
              "$": "QString"
            },
            "name": {
              "$": "configurationName"
            },
            "anchorfile": {
              "$": "classKDecoration2_1_1DecorationThemeMetaData.html"
            },
            "anchor": {
              "$": "ab11b11246d961c819e42cd0441591f8d"
            },
            "arglist": {
              "$": "() const"
            }
          },
          {
            "@kind": "function",
            "type": {
              "$": "QString"
            },
            "name": {
              "$": "pluginId"
            },
            "anchorfile": {
              "$": "classKDecoration2_1_1DecorationThemeMetaData.html"
            },
            "anchor": {
              "$": "a5fac5749e322ec11047d12ac04d2f980"
            },
            "arglist": {
              "$": "() const"
            }
          },
          {
            "@kind": "function",
            "type": {
              "$": "QString"
            },
            "name": {
              "$": "themeName"
            },
            "anchorfile": {
              "$": "classKDecoration2_1_1DecorationThemeMetaData.html"
            },
            "anchor": {
              "$": "a27bdc7981afaced936f31c9393c5ed27"
            },
            "arglist": {
              "$": "() const"
            }
          },
          {
            "@kind": "function",
            "type": {
              "$": "QString"
            },
            "name": {
              "$": "visibleName"
            },
            "anchorfile": {
              "$": "classKDecoration2_1_1DecorationThemeMetaData.html"
            },
            "anchor": {
              "$": "a7deef8227880d16ccda6a99b4103dbae"
            },
            "arglist": {
              "$": "() const"
            }
          }
        ]
      },
      {
        "@kind": "class",
        "name": {
          "$": "KDecoration2::DecorationThemeProvider"
        },
        "filename": {
          "$": "classKDecoration2_1_1DecorationThemeProvider.html"
        },
        "base": {
          "$": "QObject"
        },
        "member": {
          "@kind": "function",
          "@virtualness": "pure",
          "type": {
            "$": "virtual QList< DecorationThemeMetaData >"
          },
          "name": {
            "$": "themes"
          },
          "anchorfile": {
            "$": "classKDecoration2_1_1DecorationThemeProvider.html"
          },
          "anchor": {
            "$": "a24a699466506794c0ffb81d19e8a61fc"
          },
          "arglist": {
            "$": "() const =0"
          }
        }
      },
      {
        "@kind": "namespace",
        "name": {
          "$": "KDecoration2"
        },
        "filename": {
          "$": "namespaceKDecoration2.html"
        },
        "class": [
          {
            "@kind": "class",
            "$": "KDecoration2::DecoratedClient"
          },
          {
            "@kind": "class",
            "$": "KDecoration2::Decoration"
          },
          {
            "@kind": "class",
            "$": "KDecoration2::DecorationButton"
          },
          {
            "@kind": "class",
            "$": "KDecoration2::DecorationButtonGroup"
          },
          {
            "@kind": "class",
            "$": "KDecoration2::DecorationSettings"
          },
          {
            "@kind": "class",
            "$": "KDecoration2::DecorationShadow"
          },
          {
            "@kind": "class",
            "$": "KDecoration2::DecorationThemeMetaData"
          },
          {
            "@kind": "class",
            "$": "KDecoration2::DecorationThemeProvider"
          }
        ],
        "member": [
          {
            "@kind": "enumeration",
            "type": {},
            "name": {
              "$": "BorderSize"
            },
            "anchorfile": {
              "$": "namespaceKDecoration2.html"
            },
            "anchor": {
              "$": "a526d7f3eeb3de3053c3a67dfeda7aeea"
            },
            "arglist": {},
            "enumvalue": [
              {
                "@file": "namespaceKDecoration2.html",
                "@anchor": "a526d7f3eeb3de3053c3a67dfeda7aeeaa6adf97f83acf6453d4a6a4b1070f3754",
                "$": "None"
              },
              {
                "@file": "namespaceKDecoration2.html",
                "@anchor": "a526d7f3eeb3de3053c3a67dfeda7aeeaa257185e0ffa3a804cc739350820e8c04",
                "$": "NoSides"
              },
              {
                "@file": "namespaceKDecoration2.html",
                "@anchor": "a526d7f3eeb3de3053c3a67dfeda7aeeaa383c05bda6f030a44990d354b24f3338",
                "$": "Tiny"
              },
              {
                "@file": "namespaceKDecoration2.html",
                "@anchor": "a526d7f3eeb3de3053c3a67dfeda7aeeaa960b44c579bc2f6818d2daaf9e4c16f0",
                "$": "Normal"
              },
              {
                "@file": "namespaceKDecoration2.html",
                "@anchor": "a526d7f3eeb3de3053c3a67dfeda7aeeaa3a69b34ce86dacb205936a8094f6c743",
                "$": "Large"
              },
              {
                "@file": "namespaceKDecoration2.html",
                "@anchor": "a526d7f3eeb3de3053c3a67dfeda7aeeaa19a8f6992c210341d8ead9b4e2fce384",
                "$": "VeryLarge"
              },
              {
                "@file": "namespaceKDecoration2.html",
                "@anchor": "a526d7f3eeb3de3053c3a67dfeda7aeeaaa2ad65f28a717b0fd2be860a0d8e5c3e",
                "$": "Huge"
              },
              {
                "@file": "namespaceKDecoration2.html",
                "@anchor": "a526d7f3eeb3de3053c3a67dfeda7aeeaab2db345507952335e72e00724716487e",
                "$": "VeryHuge"
              },
              {
                "@file": "namespaceKDecoration2.html",
                "@anchor": "a526d7f3eeb3de3053c3a67dfeda7aeeaa5cd53b781fd1af73106f4a5420b5a01a",
                "$": "Oversized"
              }
            ]
          },
          {
            "@kind": "enumeration",
            "type": {},
            "name": {
              "$": "ColorGroup"
            },
            "anchorfile": {
              "$": "namespaceKDecoration2.html"
            },
            "anchor": {
              "$": "ad78dba21ffdf9ed35c79730cc79db0ad"
            },
            "arglist": {},
            "enumvalue": [
              {
                "@file": "namespaceKDecoration2.html",
                "@anchor": "ad78dba21ffdf9ed35c79730cc79db0ada3cab03c00dbd11bc3569afa0748013f0",
                "$": "Inactive"
              },
              {
                "@file": "namespaceKDecoration2.html",
                "@anchor": "ad78dba21ffdf9ed35c79730cc79db0ada4d3d769b812b6faa6b76e1a8abaece2d",
                "$": "Active"
              },
              {
                "@file": "namespaceKDecoration2.html",
                "@anchor": "ad78dba21ffdf9ed35c79730cc79db0ada0eaadb4fcb48a0a0ed7bc9868be9fbaa",
                "$": "Warning"
              }
            ]
          },
          {
            "@kind": "enumeration",
            "type": {},
            "name": {
              "$": "ColorRole"
            },
            "anchorfile": {
              "$": "namespaceKDecoration2.html"
            },
            "anchor": {
              "$": "a26106153d3dbc0045a42a6024de54459"
            },
            "arglist": {},
            "enumvalue": [
              {
                "@file": "namespaceKDecoration2.html",
                "@anchor": "a26106153d3dbc0045a42a6024de54459a3bb3e8c8a24891ba0f7608bcc96f8b0a",
                "$": "Frame"
              },
              {
                "@file": "namespaceKDecoration2.html",
                "@anchor": "a26106153d3dbc0045a42a6024de54459a8db484cb34af98d41a63c3f9f8350666",
                "$": "TitleBar"
              },
              {
                "@file": "namespaceKDecoration2.html",
                "@anchor": "a26106153d3dbc0045a42a6024de54459a45bd1d5b32931106efbf1a82fe6a732f",
                "$": "Foreground"
              }
            ]
          },
          {
            "@kind": "enumeration",
            "type": {},
            "name": {
              "$": "DecorationButtonType"
            },
            "anchorfile": {
              "$": "namespaceKDecoration2.html"
            },
            "anchor": {
              "$": "a9b8dd32a773fbf291f37bc345313622f"
            },
            "arglist": {},
            "enumvalue": [
              {
                "@file": "namespaceKDecoration2.html",
                "@anchor": "a9b8dd32a773fbf291f37bc345313622fab61541208db7fa7dba42c85224405911",
                "$": "Menu"
              },
              {
                "@file": "namespaceKDecoration2.html",
                "@anchor": "a9b8dd32a773fbf291f37bc345313622fa2d922098608ab43c72bf273d18415882",
                "$": "ApplicationMenu"
              },
              {
                "@file": "namespaceKDecoration2.html",
                "@anchor": "a9b8dd32a773fbf291f37bc345313622fa6dbdf8a26b87ddbd101095422db1dd92",
                "$": "OnAllDesktops"
              },
              {
                "@file": "namespaceKDecoration2.html",
                "@anchor": "a9b8dd32a773fbf291f37bc345313622fad27532d90ecd513e97ab811c0f34dbfd",
                "$": "Minimize"
              },
              {
                "@file": "namespaceKDecoration2.html",
                "@anchor": "a9b8dd32a773fbf291f37bc345313622fa9369ba148ee259473fc1fb4939b6c2e8",
                "$": "Maximize"
              },
              {
                "@file": "namespaceKDecoration2.html",
                "@anchor": "a9b8dd32a773fbf291f37bc345313622fad3d2e617335f08df83599665eef8a418",
                "$": "Close"
              },
              {
                "@file": "namespaceKDecoration2.html",
                "@anchor": "a9b8dd32a773fbf291f37bc345313622fad0700b6db10ed4cf47624e6494e9d59e",
                "$": "ContextHelp"
              },
              {
                "@file": "namespaceKDecoration2.html",
                "@anchor": "a9b8dd32a773fbf291f37bc345313622fa1c749862591cbbc9e4609d7a10288f49",
                "$": "Shade"
              },
              {
                "@file": "namespaceKDecoration2.html",
                "@anchor": "a9b8dd32a773fbf291f37bc345313622fa8e42df80f5be0538c01def29c529da16",
                "$": "KeepBelow"
              },
              {
                "@file": "namespaceKDecoration2.html",
                "@anchor": "a9b8dd32a773fbf291f37bc345313622fa493ea5cb8ab8b3cf86bb29dbfe24c150",
                "$": "KeepAbove"
              },
              {
                "@file": "namespaceKDecoration2.html",
                "@anchor": "a9b8dd32a773fbf291f37bc345313622fa90589c47f06eb971d548591f23c285af",
                "$": "Custom"
              }
            ]
          }
        ]
      },
      {
        "@kind": "page",
        "name": {
          "$": "index"
        },
        "title": {
          "$": "KDecoration2"
        },
        "filename": {
          "$": "index"
        }
      }
    ]
  }
}